<?xml version="1.0" encoding="utf-8"?>
<svg width="216px" height="175px" viewbox="0 0 216 175" version="1.1" xmlns:xlink="http://www.w3.org/1999/xlink" xmlns="http://www.w3.org/2000/svg">
  <defs>
    <path d="M0 0L216 0L216 167.107Q216 167.28 215.99 167.453Q215.98 167.625 215.96 167.796Q215.94 167.968 215.911 168.138Q215.881 168.308 215.842 168.476Q215.802 168.645 215.753 168.81Q215.704 168.976 215.646 169.138Q215.587 169.301 215.52 169.46Q215.452 169.618 215.375 169.773Q215.299 169.928 215.213 170.078Q215.128 170.228 215.034 170.373Q214.94 170.518 214.837 170.657Q214.735 170.796 214.625 170.929Q214.515 171.062 214.398 171.189Q214.28 171.315 214.156 171.435Q214.031 171.555 213.9 171.667Q213.769 171.779 213.631 171.883Q213.494 171.988 213.35 172.084Q213.207 172.181 213.059 172.269Q212.91 172.357 212.757 172.436Q212.603 172.515 212.446 172.586Q212.288 172.656 212.126 172.717Q211.965 172.779 211.8 172.83Q211.635 172.882 211.468 172.924Q211.301 172.967 211.131 172.999Q210.961 173.032 210.79 173.054Q210.619 173.077 210.447 173.09Q210.275 173.103 210.102 173.106Q209.929 173.109 209.757 173.101Q209.584 173.094 209.412 173.078Q209.241 173.061 209.07 173.034Q208.899 173.007 208.731 172.97Q208.562 172.934 208.395 172.888L109.606 145.446Q109.213 145.337 108.81 145.282Q108.407 145.227 108 145.227Q107.593 145.227 107.19 145.282Q106.787 145.337 106.394 145.446L7.6046 172.888Q7.43821 172.934 7.26945 172.97Q7.10068 173.007 6.93009 173.034Q6.7595 173.061 6.58765 173.078Q6.4158 173.094 6.24327 173.101Q6.07073 173.109 5.89807 173.106Q5.72541 173.103 5.55321 173.09Q5.381 173.077 5.20982 173.054Q5.03864 173.032 4.86905 172.999Q4.69946 172.967 4.53202 172.924Q4.36458 172.882 4.19984 172.83Q4.03511 172.779 3.87363 172.717Q3.71215 172.656 3.55445 172.586Q3.39676 172.515 3.24337 172.436Q3.08998 172.357 2.94141 172.269Q2.79285 172.181 2.64958 172.084Q2.50632 171.988 2.36885 171.883Q2.23137 171.779 2.10013 171.667Q1.96889 171.555 1.84432 171.435Q1.71976 171.315 1.60228 171.189Q1.4848 171.062 1.37479 170.929Q1.26479 170.796 1.16262 170.657Q1.06045 170.518 0.966463 170.373Q0.872474 170.228 0.786973 170.078Q0.701472 169.928 0.624742 169.773Q0.548013 169.618 0.480309 169.46Q0.412606 169.301 0.354152 169.138Q0.295698 168.976 0.246688 168.81Q0.197678 168.645 0.158273 168.476Q0.118869 168.308 0.0892011 168.138Q0.0595331 167.968 0.0396997 167.796Q0.0198663 167.625 0.00993315 167.453Q0 167.28 0 167.107L0 0Z" id="path_1" />
    <clipPath id="clip_1">
      <use xlink:href="#path_1" />
    </clipPath>
  </defs>
  <g id="Rectangle">
    <use stroke="none" fill="#FFFFFF" xlink:href="#path_1" fill-rule="evenodd" />
    <g clip-path="url(#clip_1)">
      <use xlink:href="#path_1" fill="none" stroke="#EBEBEC" stroke-width="1.7928324" />
    </g>
  </g>
</svg>