<?xml version="1.0" encoding="utf-8"?>
<svg width="54px" height="50px" viewbox="0 0 54 50" version="1.1" xmlns:xlink="http://www.w3.org/1999/xlink" xmlns="http://www.w3.org/2000/svg">
  <defs>
    <linearGradient x1="0.17372046" y1="-0.06510323" x2="0.8262808" y2="1.0651044" id="gradient_1">
      <stop offset="0" stop-color="#5A62C3" />
      <stop offset="0.5" stop-color="#4D55BD" />
      <stop offset="1" stop-color="#3940AB" />
    </linearGradient>
  </defs>
  <g id="Microsoft_Office_Teams_(2018–present)">
    <path d="M1.24704 0L15.1955 0C16.5132 0 17.5815 1.06331 17.5815 2.37499C17.5815 2.37499 17.5815 2.37499 17.5815 2.37499L17.5815 15.0212C17.5815 19.842 13.6553 23.75 8.81211 23.75L8.81211 23.75L8.77066 23.75C3.92744 23.7507 0.000702614 19.8432 0 15.0225C0 15.0221 0 15.0217 0 15.0212L0 1.24126C2.42281e-05 0.555724 0.558336 0 1.24704 0L1.24704 0Z" transform="translate(36.418945 18.75)" id="Path" fill="#5059C9" stroke="none" />
    <path d="M5.6512 11.25C8.77227 11.25 11.3024 8.7316 11.3024 5.625C11.3024 2.5184 8.77227 0 5.6512 0C2.53013 0 0 2.5184 0 5.625C0 8.7316 2.53013 11.25 5.6512 11.25Z" transform="translate(41.442383 5)" id="Oval" fill="#5059C9" stroke="none" />
    <path d="M8.16285 16.25C12.6711 16.25 16.3257 12.6123 16.3257 8.12501C16.3257 3.63769 12.6711 0 8.16285 0C3.65463 0 0 3.63769 0 8.12501C0 12.6123 3.65463 16.25 8.16285 16.25Z" transform="translate(21.34961 0)" id="Oval" fill="#7B83EB" stroke="none" />
    <path d="M25.3301 0L2.30582 0C1.00373 0.032074 -0.026302 1.10766 0.00391042 2.40376L0.00391042 16.8275C-0.177921 24.6053 6.00416 31.0597 13.818 31.25C21.6317 31.0597 27.8138 24.6053 27.632 16.8275L27.632 2.40376C27.6622 1.10766 26.6322 0.032074 25.3301 0Z" transform="translate(15.066406 18.75)" id="Path" fill="#7B83EB" stroke="none" />
    <path d="M15.0705 0L15.0705 20.2125C15.0643 21.1394 14.5 21.9721 13.6389 22.325C13.3647 22.4404 13.0701 22.4999 12.7724 22.5L1.10579 22.5C0.942538 22.0875 0.79184 21.675 0.666241 21.25C0.226647 19.8157 0.00234397 18.3246 0.000648005 16.825L0.000648005 2.4C-0.0295402 1.10597 0.998796 0.032074 2.2988 0L15.0705 0Z" transform="translate(15.069336 18.75)" id="Path" fill="#000000" fill-opacity="0.1" stroke="none" />
    <path d="M13.8147 0L13.8147 21.4625C13.8147 21.7588 13.7549 22.0521 13.6389 22.325C13.2843 23.1821 12.4478 23.7438 11.5166 23.75L1.69603 23.75C1.48253 23.3375 1.28161 22.925 1.10579 22.5C0.929964 22.075 0.79184 21.675 0.666241 21.25C0.226647 19.8157 0.00234397 18.3246 0.000648005 16.825L0.000648005 2.4C-0.0295402 1.10597 0.998796 0.032074 2.2988 0L13.8147 0Z" transform="translate(15.069336 18.75)" id="Path" fill="#000000" fill-opacity="0.2" stroke="none" />
    <path d="M13.8147 0L13.8147 18.9625C13.8051 20.2219 12.7818 21.2405 11.5165 21.25L0.666242 21.25C0.226647 19.8157 0.00234397 18.3246 0.000648005 16.825L0.000648005 2.4C-0.0295402 1.10597 0.998796 0.032074 2.2988 0L13.8147 0Z" transform="translate(15.069336 18.75)" id="Path" fill="#000000" fill-opacity="0.2" stroke="none" />
    <path d="M12.5589 0L12.5589 18.9625C12.5493 20.2219 11.526 21.2405 10.2607 21.25L0.666241 21.25C0.226647 19.8157 0.00234397 18.3246 0.000648005 16.825L0.000648005 2.4C-0.0295402 1.10597 0.998796 0.032074 2.2988 0L12.5589 0Z" transform="translate(15.069336 18.75)" id="Path" fill="#000000" fill-opacity="0.2" stroke="none" />
    <path d="M8.56472 2.28748L8.56472 6.22498C8.35122 6.23747 8.1503 6.24998 7.9368 6.24998C7.7233 6.24998 7.52238 6.23749 7.30888 6.22498C6.88499 6.19698 6.46458 6.13003 6.05307 6.02498C3.51002 5.42554 1.40906 3.65033 0.401871 1.24999C0.228568 0.846897 0.0940291 0.428344 0 0L6.26654 0C7.53379 0.00477492 8.5599 1.0261 8.56472 2.28748Z" transform="translate(21.575195 10)" id="Path" fill="#000000" fill-opacity="0.1" stroke="none" />
    <path d="M6.90701 2.28748L6.90701 4.97498C6.48311 4.94699 6.06271 4.88004 5.6512 4.77499C3.10815 4.17555 1.00718 2.40034 0 0L4.60886 0C5.87608 0.00477492 6.90219 1.02613 6.90701 2.28748Z" transform="translate(21.97754 11.250061)" id="Path" fill="#000000" fill-opacity="0.2" stroke="none" />
    <path d="M6.90701 2.28748L6.90701 4.97498C6.48311 4.94699 6.06271 4.88004 5.6512 4.77499C3.10815 4.17555 1.00718 2.40034 0 0L4.60886 0C5.87608 0.00477492 6.90219 1.02613 6.90701 2.28748Z" transform="translate(21.97754 11.250061)" id="Path" fill="#000000" fill-opacity="0.2" stroke="none" />
    <path d="M5.6512 2.2875L5.6512 4.77499C3.10815 4.17555 1.00719 2.40034 0 0L3.35304 0C4.62029 0.00479904 5.64638 1.02615 5.6512 2.2875Z" transform="translate(21.97754 11.25)" id="Path" fill="#000000" fill-opacity="0.2" stroke="none" />
    <path d="M2.30191 0L25.3261 0C26.5975 0 27.628 1.02584 27.628 2.29124L27.628 25.2087C27.628 26.4742 26.5974 27.5 25.3261 27.5L2.30191 27.5C1.03059 27.5 0 26.4741 0 25.2087L0 2.29124C0 1.02584 1.03061 0 2.30191 0Z" transform="translate(0 11.25)" id="Path" fill="url(#gradient_1)" stroke="none" />
    <path d="M12.1162 2.41999L7.51356 2.41999L7.51356 14.895L4.58124 14.895L4.58124 2.41999L0 2.41999L0 0L12.1162 0L12.1162 2.41999Z" transform="translate(7.7558594 17.55249)" id="Path" fill="#FFFFFF" stroke="none" />
  </g>
</svg>