<svg xmlns="http://www.w3.org/2000/svg" viewBox="0 0 41 41">
  <path fill="#0020FF" d="M20.5 40.5c11.0457 0 20-8.9543 20-20s-8.9543-20-20-20-20 8.9543-20 20 8.9543 20 20 20z"/>
  <path fill="#FFF" fill-rule="evenodd" d="M18.728149 20.12078l1.00975-.38516c.67314-.25678 1.00974-.99587 1.00974-2.21729 0-1.23531-.3609-2.15831-1.0826-2.769016-.72176-.610709-1.61005-.916064-2.66492-.916064h-6.87048v13.7826h6.87048l.65582-.0416c.43721-.0278.91953-.1666 1.44696-.4164.52744-.2499 1.00975-.6489 1.44694-1.1972.4372-.5482.6558-1.3498.6558-2.40463 0 0-.0034-.18043-.0104-.54131-.0069-.36088-.0832-.75297-.229-1.17631-.1457-.42333-.3886-.81543-.7287-1.17631-.34002-.36087-.84316-.54131-1.50939-.54131zm5.24649-5.475518h5.4547v1.707218h-5.4547v-1.707218zm-6.97464 1.644778h-3.83081v3.0813h3.6018c.30535 0 .57601-.09716.81196-.29148.23596-.19431.35394-.6454.35394-1.35327 0-.72175-.15615-1.14161-.46844-1.25959-.3123-.11798-.46845-.17696-.46845-.17696zm6.87054 1.88414c.6939-.54825 1.6725-.82238 2.9355-.82238 1.3464 0 2.3422.30882 2.9876.92648.6454.61765 1.0861 1.30122 1.3221 2.05073.2359.74951.3435 1.43655.3227 2.06114l-.0312.93689h-6.8497c0 1.27691.3886 1.99521 1.1659 2.15481l1.1659.2394c1.0965 0 1.7246-.2463 1.8842-.7391l.2394-.739h2.311c0 .9854-.2325 1.7314-.6975 2.2381-.4649.5066-.982.864-1.551 1.0722-.5691.2082-1.0896.3192-1.5615.3331l-.7079.0208c-1.3602 0-2.3873-.2741-3.0813-.8224-.694-.5482-1.1902-1.152-1.4886-1.8113s-.458-1.263-.4788-1.81128c-.0209-.54826-.0313-.82238-.0313-.82238l.0833-.83279c.0555-.55519.2394-1.16242.5517-1.82171.3123-.6593.8155-1.26306 1.5095-1.81131zm5.0176 3.32076h-4.3513s.1319-.35393.3956-1.0618c.2637-.70787.9091-1.0618 1.9362-1.0618 1.0133 0 1.6031.35393 1.7697 1.0618l.2498 1.0618zm-12.07551 3.66421h-3.64344v-3.66428h3.83081l.69746.22902c.46497.15267.69746.70092.69746 1.64475 0 .81891-.19432 1.32201-.58295 1.50941-.38864.1874-.72175.2811-.99934.2811z"/>
</svg>
