<?xml version="1.0" encoding="utf-8"?>
<svg width="118px" height="108px" viewBox="0 0 118 108" version="1.1" xmlns:xlink="http://www.w3.org/1999/xlink" xmlns="http://www.w3.org/2000/svg">
  <desc>Created with Lunacy</desc>
  <g id="Painting" transform="matrix(0.8660254 -0.5 0.5 0.8660254 0 47.371704)">
    <path d="M18.9315 5.57098C18.9315 8.13462 18.9315 11.6843 18.9315 14.4451C18.9315 13.0647 17.9455 11.6843 16.1706 10.5011C12.4238 8.33182 6.31049 8.33182 2.76084 10.5011C0.986014 11.6843 0 13.0647 0 14.4451L0 5.57098C0 4.19056 0.986014 2.81014 2.76084 1.62692C6.50769 -0.542308 12.4238 -0.542308 16.1706 1.62692C18.1427 2.61294 18.9315 4.19056 18.9315 5.57098Z" transform="translate(38.50421 5.7296143)" id="Path" fill="#FFFFFF" stroke="none" />
    <path d="M3.16192 0L3.16192 8.87413C3.16192 13.0154 0.00667601 14.1986 0.00667601 19.5231C0.401081 12.0294 -0.979337 9.07133 1.7815 4.53566C2.57031 2.95804 3.16192 1.38042 3.16192 0Z" transform="translate(71.03598 13.667114)" id="Path" fill="#00139B" stroke="none" />
    <path d="M16.2199 1.62692C19.9668 3.79615 19.9668 7.34581 16.2199 9.51504C12.4731 11.6843 6.55699 11.6843 2.81014 9.51504C-0.936714 7.34581 -0.936714 3.79615 2.81014 1.62692C6.55699 -0.542308 12.4731 -0.542308 16.2199 1.62692Z" transform="translate(38.454865 10.068237)" id="Path" fill="#DBDBDB" stroke="none" />
    <path d="M18.9315 5.57098L18.9315 14.4451C18.9315 13.0647 17.9455 11.6843 16.1706 10.501C12.4238 8.33182 6.50769 8.33182 2.76084 10.501C0.986014 11.4871 0 13.0647 0 14.4451L0 5.57098C0 4.19056 0.986014 2.81014 2.76084 1.62692C6.50769 -0.542308 12.4238 -0.542308 16.1706 1.62692C17.9455 2.81014 18.9315 4.19056 18.9315 5.57098Z" transform="translate(12.47345 31.760254)" id="Path" fill="#0020FF" fill-opacity="0.5019608" stroke="none" />
    <path d="M16.2199 1.62692C19.9668 3.79615 19.9668 7.34581 16.2199 9.51504C12.4731 11.6843 6.55699 11.6843 2.81014 9.51504C-0.936713 7.34581 -0.936713 3.79615 2.81014 1.62692C6.55699 -0.542308 12.4731 -0.542308 16.2199 1.62692Z" transform="translate(12.226929 36.296143)" id="Path" fill="#0020FF" stroke="none" />
    <path d="M18.9315 5.57098L18.9315 14.4451C18.9315 13.0647 17.9455 11.6843 16.1706 10.501C12.4238 8.33182 6.31049 8.33182 2.76084 10.501C0.986014 11.4871 0 13.0647 0 14.4451L0 5.57098C0 4.19056 0.986014 2.81014 2.76084 1.62692C6.5077 -0.542308 12.4238 -0.542308 16.1706 1.62692C17.9455 2.81014 18.9315 4.19056 18.9315 5.57098Z" transform="translate(62.16855 43.59265)" id="Path" fill="#F3552F" fill-opacity="0.69803923" stroke="none" />
    <path d="M16.2199 1.62692C19.9668 3.79615 19.9668 7.34581 16.2199 9.51504C12.4731 11.6843 6.55699 11.6843 2.81014 9.51504C-0.936713 7.34581 -0.936713 3.79615 2.81014 1.62692C6.35979 -0.542308 12.4731 -0.542308 16.2199 1.62692Z" transform="translate(62.119293 47.93091)" id="Path" fill="#EA2F49" stroke="none" />
    <path d="M18.9315 5.57098L18.9315 14.4451C18.9315 13.0647 17.9455 11.6843 16.1706 10.501C12.4238 8.33182 6.31049 8.33182 2.76084 10.501C0.986014 11.6843 0 13.0647 0 14.4451L0 5.57098C0 4.19056 0.986014 2.81014 2.76084 1.62692C6.50769 -0.542308 12.4238 -0.542308 16.1706 1.62692C17.9455 2.61294 18.9315 4.19056 18.9315 5.57098Z" transform="translate(33.179688 44.77588)" id="Path" fill="#00E9FF" fill-opacity="0.5019608" stroke="none" />
    <path d="M16.2199 1.62692C19.9668 3.79615 19.9668 7.34581 16.2199 9.51504C12.4731 11.6843 6.55699 11.6843 2.81014 9.51504C-0.936713 7.34581 -0.936713 3.79615 2.81014 1.62692C6.35979 -0.542308 12.4731 -0.542308 16.2199 1.62692Z" transform="translate(33.130432 49.11438)" id="Path" fill="#00E9FF" stroke="none" />
    <path d="M18.9315 5.57098L18.9315 14.4451C18.9315 13.0647 17.9455 11.6843 16.1706 10.5011C12.4238 8.33182 6.31049 8.33182 2.76084 10.5011C0.986014 11.4871 0 13.0647 0 14.4451L0 5.57098C0 4.19056 0.986014 2.81014 2.76084 1.62692C6.50769 -0.542308 12.4238 -0.542308 16.1706 1.62692C17.9455 2.61294 18.9315 3.99336 18.9315 5.57098Z" transform="translate(12.473419 14.209473)" id="Path" fill="#FCCF01" fill-opacity="0.5019608" stroke="none" />
    <path d="M16.2199 1.62692C19.9668 3.79615 19.9668 7.34581 16.2199 9.51504C12.4731 11.6843 6.55699 11.6843 2.81014 9.51504C-0.936714 7.34581 -0.936714 3.79615 2.81014 1.62692C6.35979 -0.542308 12.4731 -0.542308 16.2199 1.62692Z" transform="translate(12.424133 18.54773)" id="Path" fill="#FFEC62" stroke="none" />
    <path d="M91.749 51.3327C72.6203 63.1649 40.0818 64.3481 18.7839 53.6991C17.7979 53.1075 16.6147 52.7131 15.6287 52.1215C-5.07762 40.0922 -5.27482 20.7663 15.4315 8.7369C24.7 3.41242 36.5322 0.45438 48.5616 0.0599743C55.8581 -0.334431 62.3658 1.24319 67.0986 4.00403C73.2119 7.55368 75.9727 12.8782 72.8175 18.2026C67.493 27.0768 74.5923 35.5565 84.2553 39.6977C90.3686 42.4586 90.5658 42.4586 91.5518 42.853C95.4958 45.0222 95.8902 48.7691 92.1434 51.1355L91.749 51.3327ZM41.265 7.35648C44.8147 5.18725 50.928 5.18725 54.6748 7.35648C58.4217 9.52571 58.4217 13.0754 54.6748 15.2446C51.1252 17.4138 45.0119 17.4138 41.265 15.2446C37.5182 13.0754 37.5182 9.52571 41.265 7.35648ZM28.4469 23.5271C24.8972 25.6963 18.7839 25.6963 15.0371 23.5271C11.2902 21.3579 11.2902 18.0054 15.0371 15.639C18.5867 13.4698 24.7 13.4698 28.4469 15.639C32.1937 17.8082 32.1937 21.3579 28.4469 23.5271ZM15.0371 41.2754C18.7839 43.4446 24.8972 43.4446 28.4469 41.2754C32.1937 39.1061 32.1937 35.5565 28.4469 33.3873C24.7 31.218 18.7839 31.218 15.0371 33.3873C11.2902 35.5565 11.2902 39.1061 15.0371 41.2754ZM78.142 53.1075C74.5923 55.2768 68.479 55.2768 64.7322 53.1075C60.9853 50.9383 60.9853 47.3887 64.7322 45.2194C68.2818 43.0502 74.3951 43.0502 78.142 45.2194C81.8888 47.3887 81.8888 50.9383 78.142 53.1075ZM35.9406 54.0936C39.6874 56.2628 45.8007 56.2628 49.3504 54.0936C53.0972 51.9243 53.0972 48.3747 49.3504 46.2054C45.6035 44.0362 39.4902 44.0362 35.9406 46.2054C32.1937 48.5719 32.1937 52.1215 35.9406 54.0936Z" transform="translate(-3.0517578E-05 0)" id="Shape" fill="#6897D6" fill-rule="evenodd" stroke="none" />
    <path d="M92.0937 20.7063L91.6993 20.9035C72.5706 32.7357 40.0322 33.9189 18.7343 23.2699C17.7483 22.6783 16.565 22.2839 15.579 21.6923C5.12727 15.7762 0 7.88811 0 0L0 8.87413C0 36.8769 59.5553 49.8923 91.6993 29.7776L92.0937 29.5804C93.8686 28.3972 94.6574 27.0168 94.6574 25.6364L94.6574 16.7622C94.6574 18.1427 93.8686 19.7203 92.0937 20.7063Z" transform="translate(0.049621582 30.4292)" id="Path" fill="#02256C" stroke="none" />
  </g>
</svg>